<svg width="161" height="96" viewBox="0 0 161 96" fill="none" xmlns="http://www.w3.org/2000/svg">
<g clip-path="url(#clip0)">
<path d="M29.0978 86.0729H0V87.4266H29.0978V86.0729Z" fill="#17509F"/>
<path d="M72.801 7.55815C73.5935 7.67096 74.2729 8.12219 74.7257 8.68624L88.0858 4.28671C83.557 1.69211 78.3488 0.225601 72.801 0.112793V7.55815Z" fill="#164FA0"/>
<path d="M64.083 39.2573C64.4226 39.5958 64.6491 40.047 64.7623 40.611H80.3868C80.5 40.2726 80.6132 40.047 80.7264 39.7086L73.4803 29.3302C73.1406 29.443 72.6878 29.5558 72.3481 29.5558C71.8952 29.5558 71.5556 29.443 71.2159 29.3302L64.083 39.2573Z" fill="#164FA0"/>
<path d="M75.1786 10.3784C75.1786 10.4912 75.1786 10.7168 75.1786 10.8296L87.4065 19.8543C87.6329 19.7415 87.8594 19.6287 88.199 19.5159L89.3312 5.302L75.1786 9.81434C75.1786 10.04 75.1786 10.1528 75.1786 10.3784Z" fill="#1973BB"/>
<path d="M83.2173 38.2421L87.9726 24.9307C87.2933 24.7051 86.7272 24.1411 86.5007 23.577L75.2919 26.51C75.2919 26.6229 75.2919 26.6229 75.2919 26.7357C75.2919 27.4125 75.0654 28.0894 74.6125 28.6534L81.7455 38.6934C82.0851 38.4677 82.538 38.2421 83.2173 38.2421Z" fill="#164FA0"/>
<path d="M55.8179 5.07642L56.1576 19.5159C56.6104 19.6287 56.9501 19.7415 57.2898 19.9671L69.5176 11.1681C69.4044 10.9425 69.4044 10.7168 69.4044 10.4912C69.4044 10.1528 69.5176 9.81437 69.5176 9.58875L55.8179 5.07642Z" fill="#1973BB"/>
<path d="M70.0837 12.1833L58.0823 20.8696C58.3087 21.208 58.422 21.6593 58.422 22.1105L70.0837 24.8179C70.5366 24.3667 70.9895 24.0282 71.6688 23.9154L71.5556 13.0858C70.9895 12.973 70.4234 12.6346 70.0837 12.1833Z" fill="#164FA0"/>
<path d="M70.1969 8.34781C70.5366 8.00939 70.9895 7.78377 71.4423 7.55815L71.3291 0.112793C66.0077 0.225601 60.9128 1.5793 56.6104 3.94828L70.1969 8.34781Z" fill="#164FA0"/>
<path d="M58.1955 23.3513C58.0823 23.6897 57.8559 24.0282 57.5162 24.2538L61.4789 38.242C61.5922 38.242 61.7054 38.242 61.8186 38.242C62.2715 38.242 62.6111 38.3548 62.9508 38.4677L70.0837 28.6533C69.6308 28.0893 69.2912 27.5252 69.2912 26.7356C69.2912 26.51 69.2912 26.2843 69.4044 26.0587L58.1955 23.3513Z" fill="#164FA0"/>
<path d="M74.7257 11.9576C74.2729 12.6345 73.5935 12.9729 72.9142 13.1985L73.0274 23.9153C73.82 24.141 74.4993 24.5922 74.9522 25.3818L86.1611 22.4488V22.336C86.1611 21.772 86.2743 21.3207 86.6139 20.8695L74.7257 11.9576Z" fill="#164FA0"/>
<path d="M86.6139 53.6968L75.0654 55.1633C75.0654 55.2761 75.0654 55.3889 75.0654 55.6145C75.0654 55.9529 74.9522 56.4042 74.839 56.7426L83.1041 62.383L87.18 54.148C86.9536 54.0352 86.8404 53.8096 86.6139 53.6968Z" fill="#1973BB"/>
<path d="M99.974 33.7297C100.653 34.0682 101.219 34.745 101.446 35.5347L104.276 34.6322C104.276 33.8425 104.39 33.0529 104.39 32.2632C104.39 29.1046 103.937 26.0588 103.031 23.1257L99.974 33.7297Z" fill="#164FA0"/>
<path d="M63.064 43.7697C62.7244 43.8825 62.3847 43.9953 61.9318 43.9953C61.8186 43.9953 61.7054 43.9953 61.5922 43.9953L57.5162 49.7485C58.0823 50.3125 58.5352 51.1022 58.5352 51.8919C58.5352 52.1175 58.5352 52.4559 58.422 52.6815L69.5176 55.1633C69.6308 54.5993 69.8573 54.0352 70.1969 53.584L63.064 43.7697Z" fill="#164FA0"/>
<path d="M43.4768 36.55L40.0802 35.1963C40.5331 39.9342 41.8917 44.221 44.1561 48.1693L44.609 38.5805C44.0429 38.0165 43.59 37.3396 43.4768 36.55Z" fill="#164FA0"/>
<path d="M89.1048 25.1563L84.3495 38.5805C84.8024 38.8061 85.2553 39.1445 85.5949 39.7085L95.7848 36.7755C95.7848 36.6627 95.7848 36.4371 95.7848 36.3243C95.7848 35.309 96.3509 34.4066 97.0302 33.9553L90.0106 25.0435C89.6709 25.0435 89.4444 25.1563 89.1048 25.1563Z" fill="#1973BB"/>
<path d="M57.5162 54.0352L61.3657 62.383L69.6308 56.4042L57.7426 53.8096C57.6294 53.9224 57.6294 54.0352 57.5162 54.0352Z" fill="#1973BB"/>
<path d="M98.6153 33.2785C98.7286 33.2785 98.7286 33.2785 98.8418 33.2785L102.238 21.208L91.8221 22.5617C91.7089 23.2386 91.4824 23.8026 91.0295 24.2538L98.2757 33.3913C98.3889 33.3913 98.5021 33.2785 98.6153 33.2785Z" fill="#164FA0"/>
<path d="M42.2314 20.7567L46.0809 33.3913C46.1941 33.3913 46.1941 33.3913 46.3073 33.3913C46.4206 33.3913 46.647 33.3913 46.7602 33.3913L53.1006 23.9154C52.7609 23.4641 52.6477 22.9001 52.6477 22.336L42.2314 20.7567Z" fill="#164FA0"/>
<path d="M52.8741 21.0952C53.2138 20.3055 54.0063 19.6287 54.9121 19.403L54.5724 5.41479C49.251 8.79905 45.0619 13.7626 42.571 19.6287L52.8741 21.0952Z" fill="#164FA0"/>
<path d="M89.3312 19.4031C90.3502 19.5159 91.256 20.3056 91.5957 21.3209L101.786 20.08C99.4079 14.3267 95.4452 9.36315 90.3502 5.86609L89.3312 19.4031Z" fill="#164FA0"/>
<path d="M43.59 35.309C43.8165 34.6322 44.2694 34.0681 44.9487 33.7297L41.5521 22.3361C40.5331 25.4947 39.967 28.7661 39.967 32.2632C39.967 32.8272 39.967 33.2785 39.967 33.8425L43.59 35.309Z" fill="#164FA0"/>
<path d="M74.2729 57.6452C73.7068 58.0964 73.0274 58.4348 72.3481 58.4348C71.5556 58.4348 70.763 58.0964 70.3101 57.5323L62.8376 62.9472C65.7813 63.8496 68.9515 64.3009 72.2349 64.3009C75.6315 64.3009 78.9149 63.7368 81.9719 62.8343L74.2729 57.6452Z" fill="#164FA0"/>
<path d="M56.384 54.7121C56.1576 54.8249 55.8179 54.8249 55.5914 54.8249C54.2328 54.8249 52.9874 53.8097 52.7609 52.456L46.1941 51.3279C49.5907 55.953 54.346 59.6757 59.6674 61.9319L56.384 54.7121Z" fill="#164FA0"/>
<path d="M101.446 36.7755C101.219 37.7908 100.427 38.6933 99.2946 38.9189L99.6343 48.7332C101.899 44.8977 103.484 40.4982 104.05 35.873L101.446 36.7755Z" fill="#164FA0"/>
<path d="M53.4402 50.087L47.2131 38.9189C46.9866 39.0318 46.647 39.0318 46.4205 39.0318C46.3073 39.0318 46.0809 39.0318 45.9677 39.0318L45.2883 49.8614L52.7609 51.2151C52.8741 50.7638 53.1006 50.4254 53.4402 50.087Z" fill="#1973BB"/>
<path d="M47.8924 33.8426C48.685 34.4066 49.1379 35.1963 49.1379 36.2115C49.1379 36.4372 49.1379 36.7756 49.0246 37.0012L59.4409 39.7086C59.6674 39.2574 60.0071 39.0318 60.4599 38.6933L56.4972 25.0435C56.1575 25.1563 55.9311 25.1563 55.5914 25.1563C55.0253 25.1563 54.5725 25.0435 54.1196 24.7051L47.8924 33.8426Z" fill="#1973BB"/>
<path d="M91.8221 52.2303C91.7089 53.6968 90.4634 54.8249 88.9916 54.8249C88.7651 54.8249 88.5387 54.8249 88.3122 54.7121L85.0288 61.5934C90.1238 59.3372 94.5394 55.8402 97.8228 51.5535L91.8221 52.2303Z" fill="#164FA0"/>
<path d="M55.5914 49.0717C55.8178 49.0717 56.1575 49.0717 56.384 49.1845L60.3467 43.5441C59.5541 42.98 59.1012 42.1904 59.1012 41.1751C59.1012 41.0623 59.1012 40.9495 59.1012 40.8367L48.4585 38.1293C48.3453 38.2421 48.2321 38.3549 48.2321 38.3549L54.4592 49.2973C54.7989 49.1845 55.1385 49.0717 55.5914 49.0717Z" fill="#164FA0"/>
<path d="M88.9916 49.0717C89.5577 49.0717 90.0106 49.1846 90.4634 49.523L97.0302 38.5806C96.6906 38.3549 96.4641 38.1293 96.2377 37.7909L86.0478 40.7239C86.0478 40.8367 86.0478 40.9495 86.0478 41.0623C86.0478 42.0776 85.4817 42.9801 84.6892 43.5441L88.0858 49.1846C88.3122 49.0717 88.6519 49.0717 88.9916 49.0717Z" fill="#164FA0"/>
<path d="M98.5021 50.3126L98.0492 39.1445L91.3692 50.4254C91.4824 50.651 91.5956 50.8766 91.7088 51.1022L98.5021 50.3126Z" fill="#1973BB"/>
<path d="M86.1611 52.4559C86.1611 52.2303 86.1611 52.1175 86.1611 51.8919C86.1611 51.1022 86.5007 50.3126 87.0668 49.7485L83.4438 43.9953C83.3305 43.9953 83.2173 43.9953 83.1041 43.9953C82.538 43.9953 81.9719 43.7697 81.519 43.5441L74.4993 53.8096C74.4993 53.9225 74.6125 53.9225 74.6125 54.0353L86.1611 52.4559Z" fill="#164FA0"/>
<path d="M72.3481 52.6816C72.801 52.6816 73.2539 52.7944 73.5935 53.02L80.7264 42.6416C80.5 42.3032 80.3868 42.0776 80.3868 41.7391H64.7623C64.6491 42.1904 64.4226 42.6416 64.083 43.0928L71.2159 53.02C71.5556 52.7944 71.8952 52.6816 72.3481 52.6816Z" fill="#1973BB"/>
<path d="M128.166 0H119.788H118.769H110.39L103.937 17.0341C106.201 21.6592 107.447 26.8484 107.447 32.2632C107.447 46.5899 98.8418 58.886 86.5007 64.4136H104.05L108.239 53.4712H118.769H119.788H130.317L134.506 64.4136H152.622L128.166 0ZM119.788 40.611H118.769H112.202L119.335 21.208L126.468 40.611H119.788Z" fill="#164FA0"/>
<path d="M57.4029 0.225586H32.4944H7.58578V15.1163H23.4367V64.3008H32.4944H41.552V49.8613C38.6083 44.6721 36.7968 38.6933 36.7968 32.2632C36.7968 18.0493 45.1751 5.86601 57.4029 0.225586Z" fill="#164FA0"/>
<path d="M47.8924 79.6428C47.0999 81.899 45.5148 83.5911 42.2314 84.832C42.0049 84.3808 41.552 83.7039 41.0992 83.2527H38.8347V95.8872H36.2307V83.2527H33.7398V80.8837H36.2307V75.3561L39.4009 75.4689C39.4009 75.6945 39.1744 75.8073 38.8347 75.9201V80.8837H41.0992V82.9142C43.2504 82.1246 44.4958 81.1093 45.1751 79.6428H41.7785V77.6122H45.8544C45.9677 76.9354 46.0809 76.2585 46.0809 75.4689L49.1378 75.6945C49.1378 75.9201 48.9114 76.0329 48.5717 76.0329C48.5717 76.597 48.4585 77.0482 48.3453 77.6122H51.7419H52.308L53.7799 77.8379C53.7799 78.0635 53.6667 78.2891 53.6667 78.5147C53.2138 84.1551 52.7609 84.6064 49.3643 84.6064C49.0246 84.6064 48.685 84.6064 48.3453 84.6064C48.3453 83.9295 48.0056 83.0271 47.666 82.463C48.5717 82.5758 49.3643 82.5758 49.8172 82.5758C50.1568 82.5758 50.3833 82.5758 50.4965 82.3502C50.7229 82.1246 50.9494 81.3349 51.0626 79.7556H47.8924V79.6428ZM45.7412 86.7497L46.8734 86.8625C46.8734 87.0882 46.8734 87.3138 46.8734 87.5394C46.7602 92.6158 46.647 94.5335 46.1941 95.0976C45.628 95.8872 45.1751 95.8872 43.0239 95.8872C43.0239 95.2104 42.7975 94.4207 42.4578 93.8567C43.0239 93.8567 43.3636 93.9695 43.7032 93.9695C43.9297 93.9695 44.0429 93.9695 44.2693 93.7439C44.4958 93.4054 44.609 92.1645 44.7222 88.7803H43.7032C43.3636 91.6005 42.571 94.0823 40.6463 96C40.3066 95.436 39.7405 94.7591 39.1744 94.4207C40.5331 93.067 41.0992 91.1493 41.4388 88.7803H39.7405V86.8625H41.552C41.552 86.1857 41.552 85.5088 41.6653 84.832L44.4958 85.0576C44.4958 85.2832 44.2693 85.396 43.9297 85.396L43.8165 86.8625H45.2883L45.7412 86.7497ZM53.4402 86.8625L54.6857 86.9753C54.6857 87.201 54.6857 87.4266 54.6857 87.6522C54.5724 92.6158 54.4592 94.6463 54.0063 95.2104C53.327 96 52.6477 96.1128 50.7229 96.1128C50.7229 95.436 50.4965 94.5335 50.1568 93.9695C50.7229 94.0823 51.1758 94.0823 51.4023 94.0823C51.6287 94.0823 51.7419 93.9695 51.9684 93.8567C52.1948 93.5182 52.308 92.2773 52.4212 89.0059H51.289C50.9494 91.8261 50.0436 94.3079 48.1189 96.2256C47.7792 95.6616 47.2131 94.9848 46.647 94.6463C48.1189 93.2926 48.685 91.3749 49.0246 89.1187H47.5528V86.8625H49.2511C49.2511 86.1857 49.2511 85.5088 49.3643 84.832L52.1948 85.0576C52.1948 85.2832 51.9684 85.396 51.6287 85.396L51.4023 86.8625H53.4402Z" fill="#1973BB"/>
<path d="M78.2356 76.4841V92.9542C78.2356 95.5488 77.1034 96 73.0274 96C72.9142 95.3231 72.4613 94.0822 72.1217 93.4054C72.9142 93.4054 73.7067 93.5182 74.2729 93.5182C75.4051 93.5182 75.5183 93.5182 75.5183 92.9542V78.9659H61.3657V96H58.7616V76.4841H78.2356ZM74.1596 80.4324V82.6886H62.7243V80.4324H74.1596ZM73.0274 91.6005H66.3474V93.067H63.8565V84.2679H73.0274V91.6005ZM70.4233 86.4113H66.2342V89.4571H70.4233V86.4113Z" fill="#1973BB"/>
<path d="M89.5577 87.8778C89.4444 87.5394 89.3312 87.3138 89.218 86.8625L87.6329 86.9753V95.8872H85.2553V88.7803C85.1421 89.0059 84.9156 89.1187 84.6892 89.1187C84.4627 90.9236 84.0098 92.9542 83.3305 94.3079C82.8776 93.9695 81.9719 93.631 81.4058 93.4054C81.9719 92.1645 82.3115 90.134 82.538 88.329L85.142 88.8931V87.201C84.1231 87.3138 83.2173 87.3138 82.4248 87.3138C82.3115 87.5394 82.1983 87.6522 81.9719 87.6522L81.519 85.0576H83.3305C83.6702 84.6064 84.0098 84.1551 84.3495 83.7039C83.6702 82.8014 82.538 81.5605 81.519 80.6581L82.7644 78.8531L83.2173 79.3044C83.8966 78.0635 84.5759 76.597 84.9156 75.4689L87.6329 76.4842C87.5197 76.597 87.2932 76.7098 87.0668 76.7098C86.5007 77.9507 85.5949 79.53 84.8024 80.7709C85.1421 81.1093 85.3685 81.4477 85.5949 81.6733C86.3875 80.4324 87.18 79.0787 87.7461 77.9507L90.3502 79.0787C90.237 79.1916 90.0105 79.3044 89.6709 79.3044C88.6519 80.9965 87.0668 83.1398 85.4817 84.832H87.9726C87.6329 84.2679 87.2932 83.7039 86.9536 83.1398L88.8783 82.2374C89.7841 83.5911 90.8031 85.5088 91.1428 86.7497L89.5577 87.8778ZM89.7841 88.2162C90.3502 89.4571 90.9163 91.1493 91.1428 92.1645C90.4634 92.3901 89.7841 92.6158 88.9916 92.9542C88.7651 91.8261 88.199 90.134 87.7461 88.8931L89.7841 88.2162ZM101.672 93.067H103.144V95.436H89.7841V93.067H91.8221V76.4842H101.672V93.067ZM98.955 78.8531H94.5394V81.899H98.955V78.8531ZM98.955 87.4266V84.2679H94.5394V87.4266H98.955ZM94.5394 89.6827V92.9542H98.955V89.6827H94.5394Z" fill="#1973BB"/>
<path d="M110.73 83.2527C109.598 84.0423 108.352 84.832 107.107 85.396C106.767 84.832 105.975 83.8167 105.409 83.2527C109.371 81.4477 113.108 78.0635 114.806 75.3561L118.429 75.5817C118.316 75.8073 118.203 75.9201 117.863 76.0329C120.014 78.8531 123.977 81.5605 127.373 82.9142C126.694 83.5911 126.128 84.4936 125.562 85.2832C124.43 84.7192 123.184 84.0423 122.052 83.2527V84.832H110.73V83.2527ZM109.258 96V86.9753H123.864V96H121.033V95.2104H111.975V96H109.258ZM121.146 82.463C119.222 80.9965 117.523 79.4172 116.391 77.9507C115.372 79.4172 113.674 80.9965 111.749 82.463H121.146ZM121.033 89.3443H111.975V92.9542H121.033V89.3443Z" fill="#1973BB"/>
<path d="M161 86.0729H131.11V87.4266H161V86.0729Z" fill="#17509F"/>
</g>
<defs>
<clipPath id="clip0">
<rect width="161" height="96" fill="white"/>
</clipPath>
</defs>
</svg>
