<svg width="25" height="30" viewBox="0 0 25 30" fill="none" xmlns="http://www.w3.org/2000/svg">
<path d="M14.0134 6.52751C16.2956 4.61038 17.8205 0.291389 16.8821 0.102486C15.6351 -0.148608 12.9274 0.952407 11.6186 1.14639C9.76236 1.37052 7.74062 -0.866523 6.60579 0.380404C5.68309 1.39424 7.26731 5.08123 9.74584 6.68747C2.35125 10.3218 -8.04235 28.5664 10.0898 29.8902C35.1788 31.722 22.6159 10.0691 14.0134 6.52751ZM16.1681 20.9161C16.091 21.6274 15.714 22.2706 15.1505 22.7073C14.5556 23.1684 13.8094 23.3828 13.0679 23.4429V24.2288C13.0679 24.4391 12.9761 24.6425 12.8187 24.7817C12.6023 24.9731 12.2844 25.0203 12.0218 24.8994C11.7625 24.7801 11.5922 24.5141 11.5922 24.2288V23.3699C11.465 23.3457 11.3388 23.317 11.2141 23.2827C10.5211 23.0924 9.87841 22.7213 9.40891 22.1722C9.17504 21.8985 8.98437 21.588 8.85251 21.2527C8.81806 21.1651 8.78735 21.0759 8.76046 20.9857C8.7361 20.904 8.71097 20.821 8.70229 20.7359C8.68768 20.5931 8.71598 20.4474 8.78255 20.3202C8.91936 20.0585 9.20765 19.9004 9.50202 19.9267C9.79173 19.9524 10.0456 20.1534 10.1368 20.4296C10.1649 20.5146 10.184 20.6018 10.2156 20.686C10.2468 20.7695 10.2846 20.8508 10.329 20.9282C10.4167 21.0805 10.5265 21.221 10.653 21.3429C10.9138 21.5941 11.2459 21.7574 11.5922 21.8545V18.9347C10.9151 18.7595 10.2163 18.5331 9.65718 18.0984C9.38547 17.887 9.15492 17.6244 9.00393 17.3136C8.8446 16.9856 8.7786 16.6201 8.77592 16.2571C8.77316 15.8886 8.84319 15.5233 8.99694 15.1875C9.14094 14.873 9.34827 14.5907 9.60247 14.3567C10.146 13.8565 10.868 13.5774 11.5922 13.4749V13.4107V12.6591C11.5922 12.4489 11.6841 12.2454 11.8415 12.1062C12.0579 11.9148 12.3757 11.8675 12.6384 11.9885C12.8976 12.1079 13.068 12.3737 13.068 12.6591V13.4107V13.4705C13.1645 13.4826 13.2607 13.4971 13.3565 13.5145C14.0676 13.6432 14.7631 13.9369 15.2832 14.4496C15.5295 14.6924 15.7312 14.9817 15.873 15.2973C15.9126 15.3853 15.9473 15.4754 15.9773 15.5672C16.0053 15.6529 16.0334 15.741 16.0467 15.8304C16.068 15.9731 16.0463 16.1205 15.9852 16.251C15.8601 16.5184 15.5796 16.6887 15.2844 16.676C14.9945 16.6634 14.7317 16.4745 14.6279 16.2035C14.597 16.1229 14.5815 16.0375 14.5499 15.9571C14.5181 15.8757 14.4769 15.7981 14.4294 15.7247C14.337 15.5821 14.2174 15.4599 14.0808 15.3591C13.785 15.1407 13.4263 15.0269 13.0678 14.9633V17.7575C13.4938 17.8595 13.9202 17.9707 14.3284 18.1317C14.9453 18.3749 15.5298 18.7479 15.8665 19.3361C15.8143 19.2445 15.7635 19.1552 15.8683 19.3391C15.9712 19.5199 15.9221 19.4337 15.8704 19.3432C16.1383 19.8153 16.2264 20.3798 16.1681 20.9161Z" fill="#1973BB"/>
</svg>
