<svg width="10" height="15" viewBox="0 0 10 15" fill="none" xmlns="http://www.w3.org/2000/svg">
<path d="M8.7 0.149701C8.8 0.0598802 8.96667 0 9.16667 0C9.4 0 9.6 0.0898204 9.76667 0.239521C9.93333 0.389222 10 0.568862 10 0.808383V14.1916C10 14.4012 9.93333 14.6108 9.76667 14.7605C9.6 14.9102 9.4 15 9.16667 15C8.96667 15 8.8 14.9401 8.7 14.8503L8.6 14.7605L0.466667 8.38323C0.166667 8.08383 0 7.78443 0 7.48503C0 7.18563 0.166667 6.88623 0.466667 6.58683L8.6 0.239521L8.7 0.149701Z" fill="white"/>
</svg>
