<svg width="23" height="23" viewBox="0 0 23 23" fill="none" xmlns="http://www.w3.org/2000/svg">
<path d="M10.4071 22.5258L0.508795 13.6103C-0.169599 12.8515 -0.169599 12.1086 0.508795 11.3814C1.18719 10.6543 1.89641 10.6701 2.63647 11.4289L11.5172 19.4907L20.3055 11.4289C20.6138 11.1127 20.9684 10.9546 21.3693 10.9546C21.7702 10.9546 22.1248 11.1127 22.4331 11.4289C23.1732 12.1244 23.1732 12.8515 22.4331 13.6103L12.5348 22.5258C12.2264 22.8419 11.8718 23 11.471 23C11.0701 23 10.7155 22.8419 10.4071 22.5258ZM20.3055 0.521653C21.0455 -0.173883 21.7702 -0.173883 22.4794 0.521653C23.1886 1.21719 23.1732 1.94433 22.4331 2.7031L12.5348 11.7134C12.2264 11.9663 11.8873 12.0928 11.5172 12.0928C11.0855 12.0928 10.7155 11.9663 10.4071 11.7134L0.508796 2.7031C0.200434 2.38694 0.0462568 2.02337 0.0462568 1.61237C0.0462568 1.20137 0.200434 0.837806 0.508796 0.521652C1.18719 -0.173884 1.89641 -0.173884 2.63647 0.521653L11.5172 8.58351L20.3055 0.521653Z" fill="white"/>
</svg>
