<svg width="15" height="15" viewBox="0 0 15 15" fill="none" xmlns="http://www.w3.org/2000/svg">
<path d="M0 8.42697V6.57303H11.4045L6.17978 1.32022L7.5 0L15 7.5L7.5 15L6.15169 13.7079L11.4045 8.42697H0Z" fill="#164FA0"/>
</svg>
