<svg width="15" height="15" viewBox="0 0 15 15" fill="none" xmlns="http://www.w3.org/2000/svg">
<path d="M10.5562 7.9125L7.9125 10.5562C7.81875 10.65 7.70625 10.7062 7.575 10.7062C7.44375 10.7062 7.33125 10.65 7.2375 10.5562C7.14375 10.4625 7.0875 10.35 7.0875 10.2188C7.0875 10.0875 7.14375 9.975 7.2375 9.88125L9.1875 7.96875H4.21875C4.0875 7.96875 3.975 7.93125 3.88125 7.8375C3.7875 7.74375 3.75 7.63125 3.75 7.5C3.75 7.36875 3.7875 7.25625 3.88125 7.1625C3.975 7.06875 4.0875 7.03125 4.21875 7.03125H9.1875L7.25625 5.1C7.1625 5.00625 7.10625 4.89375 7.10625 4.7625C7.10625 4.63125 7.1625 4.51875 7.25625 4.425C7.35 4.33125 7.4625 4.275 7.59375 4.275C7.725 4.275 7.8375 4.33125 7.93125 4.425L10.575 7.06875C10.6313 7.125 10.6687 7.2 10.6875 7.275C10.7063 7.35 10.7063 7.425 10.6875 7.48125C10.7063 7.55625 10.7063 7.6125 10.6875 7.6875C10.65 7.78125 10.6125 7.85625 10.5562 7.9125ZM7.5 0C6.46875 0 5.49375 0.1875 4.575 0.58125C3.65625 0.975 2.86875 1.5 2.19375 2.19375C1.51875 2.86875 0.975 3.675 0.58125 4.575C0.1875 5.49375 0 6.46875 0 7.5C0 8.53125 0.1875 9.50625 0.58125 10.425C0.975 11.3438 1.5 12.1313 2.19375 12.8063C2.8875 13.4813 3.675 14.025 4.575 14.4188C5.49375 14.8125 6.46875 15 7.5 15C8.53125 15 9.50625 14.8125 10.425 14.4188C11.3438 14.025 12.1313 13.5 12.8063 12.8063C13.4813 12.1313 14.025 11.325 14.4188 10.425C14.8125 9.50625 15 8.53125 15 7.5C15 6.46875 14.8125 5.49375 14.4188 4.575C14.025 3.65625 13.5 2.86875 12.8063 2.19375C12.1313 1.51875 11.325 0.975 10.425 0.58125C9.50625 0.1875 8.53125 0 7.5 0Z" fill="white"/>
</svg>
