<svg width="14" height="16" viewBox="0 0 14 16" fill="none" xmlns="http://www.w3.org/2000/svg">
<path fill-rule="evenodd" clip-rule="evenodd" d="M1.75024 16H12.6211C12.9029 15.8841 13 15.6744 13.0063 15.3706C13 11.1155 12.9969 6.8634 13.0063 2.60822C13.0063 2.23562 12.784 1.97573 12.3832 1.99452C12.0665 2.00992 11.7482 2.00677 11.4208 2.00354C11.2821 2.00217 11.1418 2.00078 10.9993 2.00078V1.8317V0.535421C10.9961 0.203523 10.7958 0 10.4639 0H1.53107C0.770231 0.00313112 0.190992 0.485323 0.0281792 1.23992C0.0259688 1.25761 0.0190768 1.27373 0.0119101 1.2905C0.00892526 1.29748 0.0058928 1.30457 0.00313102 1.31194C0.00313102 5.62348 0.00313102 9.93816 0 14.2497C0.027955 14.3284 0.0521438 14.4088 0.0763027 14.4891C0.125202 14.6516 0.173978 14.8138 0.253613 14.9605C0.557322 15.5272 1.0395 15.8622 1.67823 15.9718C1.69434 15.9738 1.70917 15.981 1.72436 15.9884C1.73278 15.9925 1.74131 15.9967 1.75024 16ZM6.25123 5.01598C6.30764 5.01069 6.35811 5.00595 6.39981 5.00039C8.15005 4.99726 9.59971 6.19022 9.92847 7.8184C10.0631 8.4728 9.96604 9.09589 9.70303 9.70333C9.296 10.6489 8.72615 11.5006 8.10308 12.3147C7.73748 12.7914 7.35548 13.2491 6.97241 13.708C6.9454 13.7404 6.91839 13.7727 6.89138 13.8051C6.67847 14.0618 6.34032 14.0744 6.12741 13.8301C5.11922 12.6654 4.16113 11.4599 3.46604 10.0728C3.25 9.64071 3.07153 9.19296 3.02457 8.70137C2.97134 8.13464 3.07466 7.59296 3.31262 7.07945C3.80732 6.00861 4.63704 5.34168 5.78613 5.0818C5.94925 5.04432 6.11704 5.02858 6.25123 5.01598ZM9.8408 0.998826H9.99109V1.99452L9.9817 1.99511C9.93511 1.99803 9.89128 2.00078 9.85019 2.00078H1.59369C1.3025 2.00078 1.11151 1.88493 1.03637 1.66575C0.933044 1.37456 1.10525 1.0771 1.41522 1.01135C1.47471 0.998826 1.53733 0.998826 1.59995 0.998826H9.8408ZM5.00507 8.49785C5.00507 9.32133 5.67824 9.99766 6.50169 9.99766C7.32515 10.0008 7.99832 9.32447 8.00145 8.49785C8.00145 7.67437 7.32828 6.99805 6.50483 6.99805C5.68137 6.99805 5.00507 7.67437 5.00507 8.49785Z" fill="#FFEDED"/>
</svg>
