<svg width="32" height="21" viewBox="0 0 32 21" fill="none" xmlns="http://www.w3.org/2000/svg">
<path d="M10.6 21H30.4C30.848 21 31.232 20.88 31.552 20.58C31.872 20.28 32 19.92 32 19.5C32 19.08 31.872 18.72 31.552 18.42C31.232 18.12 30.848 18 30.4 18H10.6C10.152 18 9.768 18.12 9.448 18.42C9.128 18.72 9 19.08 9 19.5C9 19.92 9.128 20.28 9.448 20.58C9.768 20.88 10.152 21 10.6 21ZM1.6 3H30.4C30.848 3 31.232 2.88 31.552 2.58C31.872 2.28 32 1.92 32 1.5C32 1.08 31.872 0.72 31.552 0.42C31.232 0.12 30.848 0 30.4 0H1.6C1.152 0 0.768 0.12 0.448 0.42C0.128 0.72 0 1.08 0 1.5C0 1.92 0.128 2.28 0.448 2.58C0.768 2.88 1.152 3 1.6 3ZM1.6 12H30.4C30.848 12 31.232 11.88 31.552 11.58C31.872 11.28 32 10.92 32 10.5C32 10.08 31.872 9.72 31.552 9.42C31.232 9.12 30.848 9 30.4 9H1.6C1.152 9 0.768 9.12 0.448 9.42C0.128 9.72 0 10.08 0 10.5C0 10.92 0.128 11.28 0.448 11.58C0.768 11.88 1.152 12 1.6 12Z" fill="#545454"/>
</svg>
