<svg width="32" height="33" viewBox="0 0 32 33" fill="none" xmlns="http://www.w3.org/2000/svg">
<path d="M17.7085 23.5531V16.6445L13.4538 17.6447C13.3744 17.662 13.2926 17.662 13.2132 17.6447L8.9585 16.6445V23.5531L13.3335 24.5822L17.7085 23.5531Z" fill="#1973BB"/>
<path d="M13.2132 25.7384L8.29131 24.5822C8.17051 24.5518 8.06283 24.4795 7.9855 24.3768C7.90817 24.274 7.86565 24.1469 7.86475 24.0156V17.6562H6.771V25.75H13.3335C13.2932 25.749 13.253 25.7452 13.2132 25.7384Z" fill="#1973BB"/>
<path d="M13.8804 7.25H14.9741V8.40625H13.8804V7.25Z" fill="#1973BB"/>
<path d="M24.271 22.7657V17.0781C24.271 16.9248 24.2134 16.7777 24.1108 16.6693C24.0083 16.5609 23.8692 16.5 23.7241 16.5C23.5791 16.5 23.44 16.5609 23.3374 16.6693C23.2349 16.7777 23.1772 16.9248 23.1772 17.0781V22.7657L23.7241 24.5001L24.271 22.7657Z" fill="#1973BB"/>
<path d="M19.896 17.6562H18.8022V24.0156C18.8013 24.1469 18.7588 24.274 18.6815 24.3768C18.6042 24.4795 18.4965 24.5518 18.3757 24.5822L13.4538 25.7384C13.414 25.7452 13.3738 25.749 13.3335 25.75H19.896V17.6562Z" fill="#1973BB"/>
<path d="M13.8804 9.5625H14.9741V10.7188H13.8804V9.5625Z" fill="#1973BB"/>
<path d="M16.0679 9.5625H17.1616V10.7188H16.0679V9.5625Z" fill="#1973BB"/>
<path d="M16.0679 7.25H17.1616V8.40625H16.0679V7.25Z" fill="#1973BB"/>
<path d="M30.2866 31.5312H0.755371C0.610331 31.5312 0.471231 31.5922 0.368672 31.7006C0.266113 31.809 0.208496 31.956 0.208496 32.1094C0.208496 32.2627 0.266113 32.4098 0.368672 32.5182C0.471231 32.6266 0.610331 32.6875 0.755371 32.6875H30.2866C30.4317 32.6875 30.5708 32.6266 30.6733 32.5182C30.7759 32.4098 30.8335 32.2627 30.8335 32.1094C30.8335 31.956 30.7759 31.809 30.6733 31.7006C30.5708 31.5922 30.4317 31.5312 30.2866 31.5312Z" fill="#1973BB"/>
<path d="M30.7788 10.0828L15.7999 0.584254C15.7155 0.53134 15.6192 0.503418 15.521 0.503418C15.4229 0.503418 15.3265 0.53134 15.2421 0.584254L0.263194 10.0828C0.146323 10.1598 0.0604632 10.2797 0.0221062 10.4195C-0.0162508 10.5592 -0.00440028 10.7091 0.0553815 10.8402L0.170225 11.0772C0.203029 11.1484 0.249707 11.2115 0.307199 11.2624C0.364691 11.3132 0.431696 11.3506 0.503819 11.3721C0.576624 11.3944 0.652983 11.4008 0.728214 11.3909C0.803444 11.381 0.875962 11.3549 0.941319 11.3143L14.6733 2.573C14.9287 2.40853 15.222 2.32152 15.521 2.32152C15.82 2.32152 16.1133 2.40853 16.3687 2.573L30.1007 11.3143C30.1661 11.3547 30.2386 11.3807 30.3138 11.3906C30.389 11.4006 30.4654 11.3943 30.5382 11.3721C30.6103 11.3506 30.6773 11.3132 30.7348 11.2624C30.7923 11.2115 30.839 11.1484 30.8718 11.0772L30.9866 10.8402C31.0464 10.7091 31.0583 10.5592 31.0199 10.4195C30.9815 10.2797 30.8957 10.1598 30.7788 10.0828Z" fill="#1973BB"/>
<path d="M15.8054 3.56163C15.7193 3.5077 15.6211 3.47925 15.521 3.47925C15.4209 3.47925 15.3227 3.5077 15.2366 3.56163L2.396 11.7363V30.3751H28.646V11.7363L15.8054 3.56163ZM12.7866 6.67195C12.7866 6.51862 12.8442 6.37157 12.9468 6.26315C13.0494 6.15473 13.1885 6.09382 13.3335 6.09382H17.7085C17.8535 6.09382 17.9926 6.15473 18.0952 6.26315C18.1978 6.37157 18.2554 6.51862 18.2554 6.67195V11.2969C18.2554 11.4503 18.1978 11.5973 18.0952 11.7057C17.9926 11.8142 17.8535 11.8751 17.7085 11.8751H13.3335C13.1885 11.8751 13.0494 11.8142 12.9468 11.7057C12.8442 11.5973 12.7866 11.4503 12.7866 11.2969V6.67195ZM27.5522 28.6407C27.5522 28.794 27.4946 28.9411 27.3921 29.0495C27.2895 29.1579 27.1504 29.2188 27.0054 29.2188H4.03662C3.89158 29.2188 3.75248 29.1579 3.64992 29.0495C3.54736 28.9411 3.48975 28.794 3.48975 28.6407V13.6094C3.48975 13.4561 3.54736 13.3091 3.64992 13.2006C3.75248 13.0922 3.89158 13.0313 4.03662 13.0313H27.0054C27.1504 13.0313 27.2895 13.0922 27.3921 13.2006C27.4946 13.3091 27.5522 13.4561 27.5522 13.6094V28.6407Z" fill="#1973BB"/>
<path d="M4.5835 28.0625H26.4585V14.1875H4.5835V28.0625ZM22.0835 17.0781C22.0835 16.6181 22.2563 16.177 22.564 15.8517C22.8717 15.5265 23.289 15.3438 23.7241 15.3438C24.1592 15.3438 24.5765 15.5265 24.8842 15.8517C25.1919 16.177 25.3647 16.6181 25.3647 17.0781V22.8594C25.3648 22.9215 25.3554 22.9831 25.3369 23.0421L24.2431 26.5108C24.2071 26.6265 24.1376 26.7272 24.0443 26.7986C23.951 26.87 23.8387 26.9084 23.7236 26.9084C23.6084 26.9084 23.4962 26.87 23.4029 26.7986C23.3096 26.7272 23.24 26.6265 23.204 26.5108L22.1103 23.0421C22.0921 22.9831 22.0831 22.9214 22.0835 22.8594V17.0781ZM5.67725 17.0781C5.67725 16.9248 5.73486 16.7777 5.83742 16.6693C5.93998 16.5609 6.07908 16.5 6.22412 16.5H7.86475V15.9219C7.86531 15.8357 7.88371 15.7506 7.91867 15.6727C7.95362 15.5948 8.00428 15.5259 8.06709 15.4709C8.13196 15.4171 8.20715 15.3788 8.28744 15.3589C8.36772 15.3389 8.45116 15.3377 8.53193 15.3553L13.3335 16.4884L18.1351 15.3553C18.2158 15.3377 18.2993 15.3389 18.3796 15.3589C18.4598 15.3788 18.535 15.4171 18.5999 15.4709C18.6627 15.5259 18.7134 15.5948 18.7483 15.6727C18.7833 15.7506 18.8017 15.8357 18.8022 15.9219V16.5H20.4429C20.5879 16.5 20.727 16.5609 20.8296 16.6693C20.9321 16.7777 20.9897 16.9248 20.9897 17.0781V26.3281C20.9897 26.4815 20.9321 26.6285 20.8296 26.7369C20.727 26.8453 20.5879 26.9062 20.4429 26.9062H6.22412C6.07908 26.9062 5.93998 26.8453 5.83742 26.7369C5.73486 26.6285 5.67725 26.4815 5.67725 26.3281V17.0781Z" fill="#1973BB"/>
</svg>
