<svg width="16" height="16" viewBox="0 0 16 16" fill="none" xmlns="http://www.w3.org/2000/svg">
<path fill-rule="evenodd" clip-rule="evenodd" d="M11.2787 16H16V15.0638H14.0921V0H5.64875V4.75303H11.2787V16ZM7.53792 1.01135H12.2123V1.92564H7.53792V1.01135ZM7.53165 2.88689H12.2092V3.80431H7.53165V2.88689ZM13.1428 5.70176V6.61918H12.2248V5.70176H13.1428ZM13.1428 7.57417V8.49159H12.2217V7.57417H13.1428ZM12.2248 9.44658H13.149V10.3671H12.2248V9.44658ZM13.1459 12.2364H12.2217V11.3221H13.1459V12.2364ZM13.1428 13.2008V14.1182H12.2248V13.2008H13.1428ZM8.46838 15.9937H10.3294V5.6986H1.88604V15.07H0V15.9937H3.77521V13.2008H8.46838V15.9937ZM3.78148 8.51034H8.45898V9.42776H3.78148V8.51034ZM3.78148 11.3033V10.3828H8.45271V11.3033H3.78148ZM4.71197 15.9875V14.137H5.63619V15.9875H4.71197ZM7.51906 15.9906V14.137H6.6011V15.9906H7.51906Z" fill="white"/>
</svg>
