<svg width="29" height="29" viewBox="0 0 29 29" fill="none" xmlns="http://www.w3.org/2000/svg">
<path d="M9.715 20.2528C9.53375 19.3817 9.425 18.5469 9.31625 17.7121C9.2075 16.8773 9.135 16.1151 9.09875 15.3892H0C0.0725 16.6233 0.29 17.821 0.68875 18.9825C1.0875 20.1439 1.595 21.1965 2.21125 22.2128L3.44375 21.7409C4.4225 21.4143 5.40125 21.1239 6.4525 20.8698C7.50375 20.6158 8.59125 20.4343 9.715 20.2528ZM3.44375 23.8824C3.9875 24.4994 4.5675 25.0801 5.22 25.6245C5.8725 26.169 6.525 26.6408 7.21375 27.0401C7.93875 27.4393 8.66375 27.8023 9.46125 28.0926C10.2588 28.383 11.0563 28.6008 11.89 28.7459C11.5638 27.8023 11.2375 26.786 10.9475 25.6608C10.6213 24.5357 10.3313 23.3742 10.0775 22.1765C8.9175 22.3942 7.7575 22.6483 6.63375 22.9387C5.47375 23.229 4.4225 23.5557 3.44375 23.8824ZM14.5 21.7046C14.1013 21.7046 13.6663 21.7409 13.2313 21.7772C12.7963 21.8135 12.3613 21.8498 11.8538 21.9224C12.1438 23.229 12.5062 24.4994 12.905 25.7334C13.3038 26.9675 13.6663 28.0563 14.065 29C14.1375 29 14.21 29 14.2825 29C14.355 29 14.4275 29 14.5 29C14.5725 29 14.645 29 14.7175 29C14.79 29 14.8625 29 14.935 29C15.3338 28.0563 15.7325 26.9675 16.095 25.7334C16.4938 24.4994 16.82 23.229 17.1462 21.9224C16.675 21.8498 16.2038 21.8135 15.7688 21.7772C15.3338 21.7409 14.8988 21.7046 14.5 21.7046ZM19.285 20.2528C20.4088 20.398 21.4963 20.6158 22.5112 20.8335C23.5625 21.0876 24.5775 21.378 25.52 21.7046L26.7525 22.1402C27.405 21.1239 27.9125 20.0713 28.275 18.9099C28.6375 17.7484 28.8913 16.587 28.9638 15.3166H19.9013C19.865 16.0426 19.7925 16.8411 19.6838 17.6396C19.575 18.5469 19.4663 19.3817 19.285 20.2528ZM17.11 28.7459C17.9438 28.6008 18.7413 28.383 19.5388 28.0926C20.3363 27.8023 21.0975 27.4393 21.7863 27.0401C22.5112 26.6408 23.1637 26.169 23.78 25.6245C24.3962 25.0801 25.0125 24.5357 25.5563 23.8824C24.5775 23.5557 23.49 23.2653 22.3663 22.9387C21.2063 22.6483 20.0463 22.3942 18.9225 22.1765C18.6688 23.3742 18.3787 24.5357 18.0525 25.6608C17.7262 26.786 17.4363 27.8023 17.11 28.7459ZM9.715 8.71089C8.59125 8.56571 7.50375 8.34793 6.48875 8.13016C5.4375 7.87609 4.4225 7.58573 3.48 7.25907L2.2475 6.82353C1.595 7.8398 1.0875 8.89237 0.725 10.0538C0.3625 11.2153 0.10875 12.3767 0.03625 13.6471H9.135C9.17125 12.9212 9.24375 12.1227 9.3525 11.3242C9.425 10.4168 9.53375 9.58198 9.715 8.71089ZM25.7375 5.29912C25.1938 4.64581 24.5775 4.02879 23.9613 3.48436C23.345 2.93992 22.62 2.43179 21.895 1.99625C21.17 1.5607 20.4088 1.19775 19.6112 0.907384C18.8137 0.617021 17.98 0.362954 17.11 0.217772C17.4363 1.16145 17.7625 2.17772 18.0525 3.33917C18.3787 4.50063 18.6688 5.66208 18.9225 6.82353C20.0825 6.64205 21.2788 6.42428 22.4388 6.13392C23.635 5.87985 24.7225 5.58949 25.7375 5.29912ZM17.545 8.89237C17.0375 8.96496 16.53 9.00125 16.0225 9.00125C15.515 9.03755 15.0075 9.03755 14.5 9.03755C13.9925 9.03755 13.485 9.03755 12.9775 9.00125C12.47 8.96496 11.9625 8.92866 11.455 8.89237C11.31 9.72716 11.165 10.5257 11.0925 11.3242C10.9838 12.1227 10.9475 12.8486 10.9113 13.5745H18.0888C18.0525 12.8486 17.98 12.1227 17.9075 11.3242C17.7988 10.5257 17.69 9.72716 17.545 8.89237ZM19.285 8.71089C19.4663 9.58198 19.575 10.4168 19.6838 11.2516C19.7925 12.0864 19.865 12.8486 19.9013 13.5745H29C28.9275 12.3404 28.71 11.1427 28.3113 9.98123C27.9487 8.81977 27.4413 7.76721 26.7888 6.75094L25.5563 7.22278C24.5775 7.54944 23.5988 7.8398 22.5475 8.09387C21.4963 8.34793 20.4088 8.52941 19.285 8.71089ZM14.5 7.25907C14.8988 7.25907 15.3338 7.25907 15.7688 7.22278C16.2038 7.18648 16.675 7.15019 17.1462 7.0776C16.8563 5.77096 16.4938 4.46433 16.095 3.26658C15.6963 2.03254 15.3338 0.94368 14.935 0C14.8625 0 14.79 0 14.7175 0C14.645 0 14.5725 0 14.5 0C14.4275 0 14.355 0 14.2825 0C14.21 0 14.1375 0 14.065 0C13.6663 0.94368 13.2675 2.03254 12.905 3.26658C12.5062 4.50063 12.18 5.77096 11.8538 7.0776C12.325 7.15019 12.7963 7.18648 13.2313 7.22278C13.6663 7.22278 14.1013 7.25907 14.5 7.25907ZM11.455 20.0713C11.9625 19.9987 12.47 19.9625 12.9775 19.9625C13.485 19.9262 13.9925 19.9262 14.5 19.9262C15.0075 19.9262 15.515 19.9262 16.0225 19.9625C16.53 19.9987 17.0375 20.035 17.545 20.0713C17.69 19.2365 17.835 18.438 17.9075 17.6396C18.0163 16.8411 18.0525 16.1151 18.0888 15.3892H10.9113C10.9475 16.1151 11.02 16.8411 11.0925 17.6396C11.2013 18.438 11.31 19.2365 11.455 20.0713ZM11.89 0.217772C11.0563 0.362954 10.2588 0.580726 9.46125 0.871089C8.66375 1.16145 7.9025 1.52441 7.21375 1.92365C6.48875 2.3229 5.83625 2.79474 5.22 3.33917C4.60375 3.8836 3.9875 4.42804 3.44375 5.08135C4.4225 5.40801 5.51 5.69837 6.63375 6.02503C7.79375 6.31539 8.95375 6.56946 10.0775 6.78723C10.3313 5.58949 10.6213 4.42803 10.9475 3.30288C11.2738 2.17772 11.5638 1.16145 11.89 0.217772Z" fill="#1973BB"/>
</svg>
